{
	"info": {
		"_postman_id": "1738374b-3adb-4561-a3af-c5c28c230d8a",
		"name": "Books",
		"schema": "https://schema.getpostman.com/json/collection/v2.1.0/collection.json"
	},
	"item": [
		{
			"name": "Get Books",
			"request": {
				"method": "GET",
				"header": [],
				"url": {
					"raw": "{{API}}/books",
					"host": [
						"{{API}}"
					],
					"path": [
						"books"
					]
				}
			},
			"response": []
		},
		{
			"name": "Remove Books",
			"request": {
				"method": "DELETE",
				"header": [],
				"url": {
					"raw": "{{API}}/books/12312",
					"host": [
						"{{API}}"
					],
					"path": [
						"books",
						"12312"
					]
				}
			},
			"response": []
		},
		{
			"name": "Create Books",
			"request": {
				"method": "POST",
				"header": [
					{
						"key": "Content-Type",
						"name": "Content-Type",
						"value": "application/json",
						"type": "text"
					}
				],
				"body": {
					"mode": "raw",
					"raw": "{\n\t\"id\":1231,\n\t\"title\":\"Mi Libro\",\n\t\"sinopsis\":\"sdf sdfsdkjflskdfjlskdfjsdf\",\n\t\"createAt\":\"2018-01-02\"\n}"
				},
				"url": {
					"raw": "{{API}}/books",
					"host": [
						"{{API}}"
					],
					"path": [
						"books"
					]
				}
			},
			"response": []
		},
		{
			"name": "Update Books",
			"request": {
				"method": "PUT",
				"header": [
					{
						"key": "Content-Type",
						"name": "Content-Type",
						"value": "application/json",
						"type": "text"
					}
				],
				"body": {
					"mode": "raw",
					"raw": "{\n\t\"id\":1231,\n\t\"title\":\"Mi Libro\",\n\t\"sinopsis\":\"sdf sdfsdkjflskdfjlskdfjsdf\",\n\t\"createAt\":\"2018-01-02\"\n}"
				},
				"url": {
					"raw": "{{API}}/books",
					"host": [
						"{{API}}"
					],
					"path": [
						"books"
					]
				}
			},
			"response": []
		},
		{
			"name": "Get Book By Id",
			"request": {
				"method": "GET",
				"header": [],
				"url": {
					"raw": "http://127.0.0.1:8080/books/4",
					"protocol": "http",
					"host": [
						"127",
						"0",
						"0",
						"1"
					],
					"port": "8080",
					"path": [
						"books",
						"4"
					]
				}
			},
			"response": []
		}
	],
	"protocolProfileBehavior": {}
}